fpga_lab/Lab02_bcd_counter/golden/golden_wave.vcd
$date
	Mon May 11 09:39:55 2026
$end
$version
	Icarus Verilog
$end
$timescale
	1ps
$end
$scope module tb_bcd_counter $end
$var wire 4 ! count [3:0] $end
$var wire 1 " carry $end
$var reg 1 # clk $end
$var reg 1 $ clr $end
$var reg 1 % en $end
$var reg 1 & rst $end
$var reg 1 ' up $end
$var integer 32 ( errors [31:0] $end
$var integer 32 ) i [31:0] $end
$var integer 32 * log_fd [31:0] $end
$var integer 32 + pattern [31:0] $end
$var integer 32 , result_fd [31:0] $end
$scope module dut $end
$var wire 1 " carry $end
$var wire 1 # clk $end
$var wire 1 $ clr $end
$var wire 1 % en $end
$var wire 1 & rst $end
$var wire 1 ' up $end
$var reg 4 - count [3:0] $end
$upscope $end
$scope task check_carry $end
$var reg 1 . expected $end
$var reg 256 / name [255:0] $end
$upscope $end
$scope task check_count $end
$var reg 4 0 expected [3:0] $end
$var reg 256 1 name [255:0] $end
$upscope $end
$upscope $end
$enddefinitions $end
$comment Show the parameter values. $end
$dumpall
$end
#0
$dumpvars
bx 1
bx 0
bx /
x.
b0 -
b10000000000000000000000000000100 ,
b0 +
b10000000000000000000000000000011 *
bx )
b0 (
1'
1&
0%
0$
0#
0"
b0 !
$end
#5000
1#
#10000
0#
#15000
1#
#20000
b1 +
b0 0
b1110010011001010111001101100101011101000010000001110010011001010110110001100101011000010111001101100101 1
0&
0#
#25000
1#
#30000
b1 )
1%
0#
#35000
b1 !
b1 -
b10 +
b1 0
b110001101101111011101010110111001110100001000000111010101110000 1
1#
#36000
b10 )
#40000
0#
#45000
b10 !
b10 -
b11 +
b10 0
1#
#46000
b11 )
#50000
0#
#55000
b11 !
b11 -
b100 +
b11 0
1#
#56000
b100 )
#60000
0#
#65000
b100 !
b100 -
b101 +
b100 0
1#
#66000
b101 )
#70000
0#
#75000
b101 !
b101 -
b110 +
b101 0
1#
#76000
b110 )
#80000
0#
#85000
b110 !
b110 -
b111 +
b110 0
1#
#86000
b111 )
#90000
0#
#95000
b111 !
b111 -
b1000 +
b111 0
1#
#96000
b1000 )
#100000
0#
#105000
b1000 !
b1000 -
b1001 +
b1000 0
1#
#106000
b1001 )
#110000
0#
#115000
1"
b1001 !
b1001 -
b1010 +
b1001 0
1#
#116000
b1011 +
1.
b1100011011000010111001001110010011110010010000001100001011101000010000000111001 /
b1010 )
#120000
0#
#125000
0"
b0 !
b0 -
b1100 +
b0 0
b11100100110111101101100011011000110111101110110011001010111001000100000001110010010000001110100011011110010000000110000 1
1#
#130000
1$
0#
#135000
b1101 +
b110001101101100011001010110000101110010 1
1#
#140000
0%
0$
0#
#145000
b1110 +
b110100001101111011011000110010000100000011101110110100001100101011011100010000001100101011011100011110100110000 1
1#
#150000
0'
1%
0#
#155000
b1111 +
b110100001101111011011000110010000100000011101110110100001100101011011100010000001110101011100000011110100110000 1
1#
